{
    "page": 1,
    "total_results": 7645,
    "total_pages": 383,
    "results": [
        {
            "popularity": 17.67,
            "vote_count": 640,
            "video": false,
            "poster_path": "/pci1ArYW7oJ2eyTo2NMYEKHHiCP.jpg",
            "id": 724089,
            "adult": false,
            "backdrop_path": "/jtAI6OJIWLWiRItNSZoWjrsUtmi.jpg",
            "original_language": "en",
            "original_title": "Gabriel's Inferno Part II",
            "genre_ids": [
                10749
            ],
            "title": "Gabriel's Inferno Part II",
            "vote_average": 9.2,
            "overview": "Professor Gabriel Emerson finally learns the truth about Julia Mitchell's identity, but his realization comes a moment too late. Julia is done waiting for the well-respected Dante specialist to remember her and wants nothing more to do with him. Can Gabriel win back her heart before she finds love in another's arms?",
            "release_date": "2020-07-31"
        },
        {
            "popularity": 11.843,
            "vote_count": 1229,
            "video": false,
            "poster_path": "/oyG9TL7FcRP4EZ9Vid6uKzwdndz.jpg",
            "id": 696374,
            "adult": false,
            "backdrop_path": "/969BfPHGJcjg2aUv60g5uiiXFzf.jpg",
            "original_language": "en",
            "original_title": "Gabriel's Inferno",
            "genre_ids": [
                10749
            ],
            "title": "Gabriel's Inferno",
            "vote_average": 9,
            "overview": "An intriguing and sinful exploration of seduction, forbidden love, and redemption, Gabriel's Inferno is a captivating and wildly passionate tale of one man's escape from his own personal hell as he tries to earn the impossible--forgiveness and love.",
            "release_date": "2020-05-29"
        },
        {
            "popularity": 25.633,
            "vote_count": 314,
            "video": false,
            "poster_path": "/zGVbrulkupqpbwgiNedkJPyQum4.jpg",
            "id": 592350,
            "adult": false,
            "backdrop_path": "/9guoVF7zayiiUq5ulKQpt375VIy.jpg",
            "original_language": "ja",
            "original_title": "僕のヒーローアカデミア THE MOVIE ヒーローズ：ライジング",
            "genre_ids": [
                28,
                16
            ],
            "title": "My Hero Academia: Heroes Rising",
            "vote_average": 8.8,
            "overview": "Class 1-A visits Nabu Island where they finally get to do some real hero work. The place is so peaceful that it's more like a vacation … until they're attacked by a villain with an unfathomable Quirk! His power is eerily familiar, and it looks like Shigaraki had a hand in the plan. But with All Might retired and citizens' lives on the line, there's no time for questions. Deku and his friends are the next generation of heroes, and they're the island's only hope.",
            "release_date": "2019-12-20"
        },
        {
            "popularity": 14.827,
            "vote_count": 2331,
            "video": false,
            "poster_path": "/4Box84D6a7Mfa6ZMmC1B246GBQq.jpg",
            "id": 19404,
            "adult": false,
            "backdrop_path": "/svYzz6A6xleZv5toTLAhigXd1DX.jpg",
            "original_language": "hi",
            "original_title": "दिलवाले दुल्हनिया ले जायेंगे",
            "genre_ids": [
                35,
                18,
                10749
            ],
            "title": "Dilwale Dulhania Le Jayenge",
            "vote_average": 8.7,
            "overview": "Raj is a rich, carefree, happy-go-lucky second generation NRI. Simran is the daughter of Chaudhary Baldev Singh, who in spite of being an NRI is very strict about adherence to Indian values. Simran has left for India to be married to her childhood fiancé. Raj leaves for India with a mission at his hands, to claim his lady love under the noses of her whole family. Thus begins a saga.",
            "release_date": "1995-10-20"
        },
        {
            "popularity": 30.694,
            "vote_count": 16907,
            "video": false,
            "poster_path": "/5KCVkau1HEl7ZzfPsKAPM0sMiKc.jpg",
            "id": 278,
            "adult": false,
            "backdrop_path": "/avedvodAZUcwqevBfm8p4G2NziQ.jpg",
            "original_language": "en",
            "original_title": "The Shawshank Redemption",
            "genre_ids": [
                80,
                18
            ],
            "title": "The Shawshank Redemption",
            "vote_average": 8.7,
            "overview": "Framed in the 1940s for the double murder of his wife and her lover, upstanding banker Andy Dufresne begins a new life at the Shawshank prison, where he puts his accounting skills to work for an amoral warden. During his long stretch in prison, Dufresne comes to be admired by the other inmates -- including an older prisoner named Red -- for his integrity and unquenchable sense of hope.",
            "release_date": "1994-09-23"
        },
        {
            "popularity": 29.049,
            "id": 238,
            "video": false,
            "vote_count": 12767,
            "vote_average": 8.7,
            "title": "The Godfather",
            "release_date": "1972-03-14",
            "original_language": "en",
            "original_title": "The Godfather",
            "genre_ids": [
                18,
                80
            ],
            "backdrop_path": "/ejdD20cdHNFAYAN2DlqPToXKyzx.jpg",
            "adult": false,
            "overview": "Spanning the years 1945 to 1955, a chronicle of the fictional Italian-American Corleone crime family. When organized crime family patriarch, Vito Corleone barely survives an attempt on his life, his youngest son, Michael steps in to take care of the would-be killers, launching a campaign of bloody revenge.",
            "poster_path": "/iVZ3JAcAjmguGPnRNfWFOtLHOuY.jpg"
        },
        {
            "popularity": 14.295,
            "vote_count": 402,
            "video": false,
            "poster_path": "/8mRgpubxHqnqvENK4Bei30xMDvy.jpg",
            "id": 537061,
            "adult": false,
            "backdrop_path": "/re3ZvlKJg04iLpLRf1xTKHS2wLU.jpg",
            "original_language": "en",
            "original_title": "Steven Universe: The Movie",
            "genre_ids": [
                28,
                12,
                16,
                35,
                18,
                14,
                10402,
                10751
            ],
            "title": "Steven Universe: The Movie",
            "vote_average": 8.6,
            "overview": "Two years after the events of \"Change Your Mind\", Steven (now 16 years old) and his friends are ready to enjoy the rest of their lives peacefully. However, all of that changes when a new sinister Gem arrives, armed with a giant drill that saps the life force of all living things on Earth. In their biggest challenge ever, the Crystal Gems must work together to save all organic life on Earth within 48 hours.",
            "release_date": "2019-09-02"
        },
        {
            "popularity": 22.574,
            "vote_count": 10149,
            "video": false,
            "poster_path": "/c8Ass7acuOe4za6DhSattE359gr.jpg",
            "id": 424,
            "adult": false,
            "backdrop_path": "/w2ezhZUk7ZJH9Mdk1Y6CTmaDRg5.jpg",
            "original_language": "en",
            "original_title": "Schindler's List",
            "genre_ids": [
                18,
                36,
                10752
            ],
            "title": "Schindler's List",
            "vote_average": 8.6,
            "overview": "The true story of how businessman Oskar Schindler saved over a thousand Jewish lives from the Nazis while they worked as slaves in his factory during World War II.",
            "release_date": "1993-11-30"
        },
        {
            "popularity": 32.033,
            "vote_count": 6187,
            "video": false,
            "poster_path": "/q719jXXEzOoYaps6babgKnONONX.jpg",
            "id": 372058,
            "adult": false,
            "backdrop_path": "/mMtUybQ6hL24FXo0F3Z4j2KG7kZ.jpg",
            "original_language": "ja",
            "original_title": "君の名は。",
            "genre_ids": [
                16,
                18,
                10749
            ],
            "title": "Your Name.",
            "vote_average": 8.6,
            "overview": "High schoolers Mitsuha and Taki are complete strangers living separate lives. But one night, they suddenly switch places. Mitsuha wakes up in Taki’s body, and he in hers. This bizarre occurrence continues to happen randomly, and the two must adjust their lives around each other.",
            "release_date": "2016-08-26"
        },
        {
            "popularity": 19.85,
            "id": 240,
            "video": false,
            "vote_count": 7576,
            "vote_average": 8.6,
            "title": "The Godfather: Part II",
            "release_date": "1974-12-20",
            "original_language": "en",
            "original_title": "The Godfather: Part II",
            "genre_ids": [
                18,
                80
            ],
            "backdrop_path": "/poec6RqOKY9iSiIUmfyfPfiLtvB.jpg",
            "adult": false,
            "overview": "In the continuing saga of the Corleone crime family, a young Vito Corleone grows up in Sicily and in 1910s New York. In the 1950s, Michael Corleone attempts to expand the family business into Las Vegas, Hollywood and Cuba.",
            "poster_path": "/amvmeQWheahG3StKwIE1f7jRnkZ.jpg"
        },
        {
            "popularity": 23.716,
            "vote_count": 331,
            "video": false,
            "poster_path": "/h1B7tW0t399VDjAcWJh8m87469b.jpg",
            "id": 556574,
            "adult": false,
            "backdrop_path": "/uWVkEo9PWHu9algZsiLPi6sRU64.jpg",
            "original_language": "en",
            "original_title": "Hamilton",
            "genre_ids": [
                18,
                36,
                10402
            ],
            "title": "Hamilton",
            "vote_average": 8.6,
            "overview": "Presenting the tale of American founding father Alexander Hamilton, this filmed version of the original Broadway smash hit is the story of America then, told by America now.",
            "release_date": "2020-07-03"
        },
        {
            "popularity": 33.078,
            "vote_count": 9945,
            "video": false,
            "poster_path": "/2TeJfUZMGolfDdW6DKhfIWqvq8y.jpg",
            "id": 129,
            "adult": false,
            "backdrop_path": "/Ab8mkHmkYADjU7wQiOkia9BzGvS.jpg",
            "original_language": "ja",
            "original_title": "千と千尋の神隠し",
            "genre_ids": [
                16,
                14,
                10751
            ],
            "title": "Spirited Away",
            "vote_average": 8.5,
            "overview": "A young girl, Chihiro, becomes trapped in a strange new world of spirits. When her parents undergo a mysterious transformation, she must call upon the courage she never knew she had to free her family.",
            "release_date": "2001-07-20"
        },
        {
            "popularity": 6.079,
            "vote_count": 247,
            "video": false,
            "poster_path": "/zGGWYpiKNwjpKxelPxOMqJnUgDs.jpg",
            "id": 42269,
            "adult": false,
            "backdrop_path": "/bh6yfB6I1N1WuMiX6K5HxGVZnja.jpg",
            "original_language": "it",
            "original_title": "C'eravamo tanto amati",
            "genre_ids": [
                35,
                18
            ],
            "title": "We All Loved Each Other So Much",
            "vote_average": 8.5,
            "overview": "Gianni, Nicola and Antonio become close friends in 1944 while fighting the Nazis. After the end of the war, full of illusions, they settle down. The movie is a the story of the life of these three idealists and how they deal with the inevitable disillusionments of life.",
            "release_date": "1974-12-21"
        },
        {
            "popularity": 58.422,
            "vote_count": 8777,
            "video": false,
            "poster_path": "/7IiTTgloJzvGI1TAYymCfbfl3vT.jpg",
            "id": 496243,
            "adult": false,
            "backdrop_path": "/ApiBzeaa95TNYliSbQ8pJv4Fje7.jpg",
            "original_language": "ko",
            "original_title": "기생충",
            "genre_ids": [
                35,
                18,
                53
            ],
            "title": "Parasite",
            "vote_average": 8.5,
            "overview": "All unemployed, Ki-taek's family takes peculiar interest in the wealthy and glamorous Parks for their livelihood until they get entangled in an unexpected incident.",
            "release_date": "2019-05-30"
        },
        {
            "popularity": 17.798,
            "vote_count": 10680,
            "video": false,
            "poster_path": "/velWPhVMQeQKcxggNEU8YmIo52R.jpg",
            "id": 497,
            "adult": false,
            "backdrop_path": "/xMIyotorUv2Yz7zpQz2QYc8wkWB.jpg",
            "original_language": "en",
            "original_title": "The Green Mile",
            "genre_ids": [
                80,
                18,
                14
            ],
            "title": "The Green Mile",
            "vote_average": 8.5,
            "overview": "A supernatural tale set on death row in a Southern prison, where gentle giant John Coffey possesses the mysterious power to heal people's ailments. When the cell block's head guard, Paul Edgecomb, recognizes Coffey's miraculous gift, he tries desperately to help stave off the condemned man's execution.",
            "release_date": "1999-12-10"
        },
        {
            "popularity": 17.389,
            "vote_count": 536,
            "video": false,
            "poster_path": "/mi5VN4ww0JZgRFJIaPxxTGKjUg7.jpg",
            "id": 522924,
            "adult": false,
            "backdrop_path": "/6esNUoXh4xQvucB7o7e3TCfjI65.jpg",
            "original_language": "en",
            "original_title": "The Art of Racing in the Rain",
            "genre_ids": [
                35,
                18,
                10749
            ],
            "title": "The Art of Racing in the Rain",
            "vote_average": 8.5,
            "overview": "A family dog—with a near-human soul and a philosopher's mind—evaluates his life through the lessons learned by his human owner, a race-car driver.",
            "release_date": "2019-08-08"
        },
        {
            "popularity": 32.183,
            "vote_count": 19278,
            "video": false,
            "poster_path": "/yAaf4ybTENKPicqzsAoW6Emxrag.jpg",
            "id": 680,
            "adult": false,
            "backdrop_path": "/eDMZmfnH50DDboUxTRnOYYpE9aY.jpg",
            "original_language": "en",
            "original_title": "Pulp Fiction",
            "genre_ids": [
                80,
                53
            ],
            "title": "Pulp Fiction",
            "vote_average": 8.5,
            "overview": "A burger-loving hit man, his philosophical partner, a drug-addled gangster's moll and a washed-up boxer converge in this sprawling, comedic crime caper. Their adventures unfurl in three stories that ingeniously trip back and forth in time.",
            "release_date": "1994-09-10"
        },
        {
            "popularity": 25.528,
            "vote_count": 693,
            "video": false,
            "poster_path": "/c01Y4suApJ1Wic2xLmaq1QYcfoZ.jpg",
            "id": 618344,
            "adult": false,
            "backdrop_path": "/sQkRiQo3nLrQYMXZodDjNUJKHZV.jpg",
            "original_language": "en",
            "original_title": "Justice League Dark: Apokolips War",
            "genre_ids": [
                28,
                12,
                16,
                14,
                878
            ],
            "title": "Justice League Dark: Apokolips War",
            "vote_average": 8.5,
            "overview": "Earth is decimated after intergalactic tyrant Darkseid has devastated the Justice League in a poorly executed war by the DC Super Heroes. Now the remaining bastions of good – the Justice League, Teen Titans, Suicide Squad and assorted others – must regroup, strategize and take the war to Darkseid in order to save the planet and its surviving inhabitants.",
            "release_date": "2020-05-05"
        },
        {
            "popularity": 21.296,
            "vote_count": 9138,
            "video": false,
            "poster_path": "/74hLDKjD5aGYOotO6esUVaeISa2.jpg",
            "id": 637,
            "adult": false,
            "backdrop_path": "/gavyCu1UaTaTNPsVaGXT6pe5u24.jpg",
            "original_language": "it",
            "original_title": "La vita è bella",
            "genre_ids": [
                35,
                18
            ],
            "title": "Life Is Beautiful",
            "vote_average": 8.5,
            "overview": "A touching story of an Italian book seller of Jewish ancestry who lives in his own little fairy tale. His creative and happy life would come to an abrupt halt when his entire family is deported to a concentration camp during World War II. While locked up he tries to convince his son that the whole thing is just a game.",
            "release_date": "1997-12-20"
        },
        {
            "popularity": 35.055,
            "id": 122,
            "video": false,
            "vote_count": 16042,
            "vote_average": 8.5,
            "title": "The Lord of the Rings: The Return of the King",
            "release_date": "2003-12-01",
            "original_language": "en",
            "original_title": "The Lord of the Rings: The Return of the King",
            "genre_ids": [
                12,
                14,
                28
            ],
            "backdrop_path": "/9DeGfFIqjph5CBFVQrD6wv9S7rR.jpg",
            "adult": false,
            "overview": "Aragorn is revealed as the heir to the ancient kings as he, Gandalf and the other members of the broken fellowship struggle to save Gondor from Sauron's forces. Meanwhile, Frodo and Sam take the ring closer to the heart of Mordor, the dark lord's realm.",
            "poster_path": "/rCzpDGLbOoPwLjy3OAm5NUPOTrC.jpg"
        }
    ]
}